glinski_metabolites
…
##  - attr(*, "group_sizes")= int  4 4 4 4 4 4 4 4 4 4 ...
##  - attr(*, "biggest_group_size")= int 8
##  - attr(*, "labels")='data.frame':   86 obs. of  4 variables:
##   ..$ parent : Factor w/ 3 levels "atrazine","fipronil",..: 1 1 1 1 1 1 1 1 1 1 ...
##   ..$ analyte: Factor w/ 8 levels "ATZ","DEA","DIA",..: 1 1 1 1 1 1 1 1 1 1 ...
##   ..$ matrix : Factor w/ 2 levels "amphib","soil": 1 1 1 1 1 2 2 2 2 2 ...
##   ..$ time   : int  2 4 12 24 48 0 2 4 12 24 ...
##   ..- attr(*, "vars")=List of 4
##   .. ..$ : symbol parent
##   .. ..$ : symbol analyte
##   .. ..$ : symbol matrix
##   .. ..$ : symbol time
##   ..- attr(*, "drop")= logi TRUE

## Source: local data frame [352 x 6]
## Groups: parent, analyte, matrix, time [86]
## 
##     time   parent analyte matrix     conc replicate
##    <int>   <fctr>  <fctr> <fctr>    <dbl>    <fctr>
## 1      2 atrazine     ATZ amphib 3.068203         1
## 2      2 atrazine     ATZ amphib 3.689640         2
## 3      2 atrazine     ATZ amphib 4.701166         3
## 4      2 atrazine     ATZ amphib 1.892494         4
## 5      4 atrazine     ATZ amphib 7.624610         1
## 6      4 atrazine     ATZ amphib 4.134300         2
## 7      4 atrazine     ATZ amphib 2.050779         3
## 8      4 atrazine     ATZ amphib 7.626486         4
## 9     12 atrazine     ATZ amphib 2.452278         1
## 10    12 atrazine     ATZ amphib 3.786893         2
## # ... with 342 more rows

## Source: local data frame [86 x 7]
## Groups: parent, analyte, matrix [?]
## 
##      parent analyte matrix  time count  ConcMean    ConcSD
##      <fctr>  <fctr> <fctr> <int> <int>     <dbl>     <dbl>
## 1  atrazine     ATZ amphib     2     4  3.337876 1.1753225
## 2  atrazine     ATZ amphib     4     4  5.359044 2.7518903
## 3  atrazine     ATZ amphib    12     4  3.123811 1.2566289
## 4  atrazine     ATZ amphib    24     4  1.554919 0.6096102
## 5  atrazine     ATZ amphib    48     4  1.001887 0.3545473
## 6  atrazine     ATZ   soil     0     4 15.930920 2.5911041
## 7  atrazine     ATZ   soil     2     4 19.029034 4.3534303
## 8  atrazine     ATZ   soil     4     4 18.770091 2.6953158
## 9  atrazine     ATZ   soil    12     4 20.614190 3.8918511
## 10 atrazine     ATZ   soil    24     4 24.996196 4.4473828
## # ... with 76 more rows
…
